time	cat	n
t1	a	129707562
t1	b	88129908
t1	c	389863057
t1	d	24012565
t1	e	23760401
t2	a	156836917
t2	b	62688388
t2	c	313447646
t2	d	25435485
t2	e	20372566
t3	a	120418167
t3	b	70470581
t3	c	262772173
t3	d	45648876
t3	e	31042567
